[gd_scene load_steps=2 format=3 uid="uid://s6puvyw10bgo"]

[ext_resource type="Script" path="res://classes/base_classes/Actor.cs" id="1_2lbiu"]

[node name="Actor" type="CharacterBody2D"]
motion_mode = 1
script = ExtResource("1_2lbiu")

[node name="Sprite2D" type="Sprite2D" parent="."]

[node name="CollisionShape2D" type="CollisionShape2D" parent="."]

[node name="AnimationPlayer" type="AnimationPlayer" parent="."]
