[gd_scene load_steps=3 format=3 uid="uid://fb1qn0n4107k"]

[ext_resource type="Script" path="res://classes/base_classes/Pickup.cs" id="1_5xky8"]

[sub_resource type="CircleShape2D" id="CircleShape2D_ct6ws"]

[node name="Pickup" type="Area2D"]
script = ExtResource("1_5xky8")

[node name="Sprite2D" type="Sprite2D" parent="."]

[node name="CollisionShape2D" type="CollisionShape2D" parent="."]
shape = SubResource("CircleShape2D_ct6ws")
