[gd_resource type="Resource" load_steps=2 format=3 uid="uid://bqqj3v7ivplvd"]

[ext_resource type="Script" path="res://resources/actor_statistics/ActorStatistics.cs" id="1_0d0uo"]

[resource]
script = ExtResource("1_0d0uo")
strength = 1
intelligence = 1
constitution = 1
luck = 1
wisdom = 1
dexterity = 1
experienceLevel = 1
experience = 0
experienceGainMultiplier = 1.0
extraLives = 0
rerolls = 0
curse = 0.0
hp = 50.0
hpRegen = 0.1
energyRemaining = 50.0
energyRegen = 0.1
might = 1.0
defenseBonus = 1.0
cooldownReduction = 0.1
movementSpeed = 120.0
physicalAttack = 1.0
magicalAttack = 1.0
attackSpeed = 1.0
additionalAttack = 1.0
attackAreaSize = 1.0
projectileSpeed = 1.0
projectileLifetime = 1.0
effectChance = 0.1
effectDuration = 2.0
knockback = 1.0
criticalChance = 0.02
criticalDamageMultiplier = 2.0
physicalDefense = 1.0
magicalDefense = 1.0
dodgeChance = 0.05
knockbackResistance = 1.0
fireResistance = 0.1
shockResistance = 0.1
frostResistance = 0.1
poisonResistance = 0.1
isBobWatching = false
