[gd_resource type="Resource" load_steps=2 format=3 uid="uid://dn3aa6i00kde7"]

[ext_resource type="Script" path="res://scripts/ActorStatistics.cs" id="1_s3t3m"]

[resource]
script = ExtResource("1_s3t3m")
experienceLevel = 1
experienceGainMultiplier = 1.0
strength = 1
intelligence = 1
constitution = 1
luck = 1
wisdom = 1
dexterity = 1
movementSpeed = 250.0
hp = 50.0
hpRegen = 0.0
energy = 1
energyRegen = 0.1
cooldownReduction = 0.0
might = 0
defenseBonus = 0
extraLives = 0
rerolls = 0
curse = 0
attackAreaSize = 1.0
projectileSpeed = 1.0
projectileLifetime = 1.0
physicalAttack = 1.0
knockback = 1.0
magicalAttack = 1.0
attackSpeed = 1.0
additionalAttack = 1.0
criticalChance = 0.02
criticalDamageMultiplier = 2.0
effectChance = 0.1
effectDuration = 2.0
physicalDefense = 1.0
knockbackResistance = 1.0
magicalDefense = 1.0
fireResistance = 0.1
shockResistance = 0.1
frostResistance = 0.1
poisonResistance = 0.1
dodgeChance = 0.0
isBobWatching = false
