[gd_scene load_steps=2 format=3 uid="uid://bbu6pbtbp2l82"]

[ext_resource type="Script" path="res://scenes/controller/player_controller/PlayerController.cs" id="1_4yy48"]

[node name="PlayerController" type="Node2D"]
script = ExtResource("1_4yy48")
